加盟店注文番号,課金番号,補正後金額,決済日時,結果コード,新課金番号
2021-202110250003100,100400010250003100,3100,2021-10-06,OK,100400010250003101
2021-202110250003200,100400010250003200,3200,2021-10-06,NG,100400010250003201
2021-202110250003300,100400010250003300,3300,2021-10-06,OK,100400010250003301
2021-202110250003400,100400010250003400,3400,2021-10-06,OK,100400010250003401
2021-202110250003600,100400010250003600,3600,2021-10-06,OK,100400010250003601
2021-202110250003600,100400010250003600,3600,2021-10-06,OK,100400010250003601
2021-202110250003700,100400010250003700,3600,2021-10-06,OK,100400010250003700
