加盟店注文番号,課金番号,決済金額,決済日時,結果コード
2021-202110120000100,100400010120000100,100,2021-10-06,OK
2021-202110120000200,100400010120000200,200,2021-10-06,NG
2021-202110120000300,100400010120000300,300,2021-10-06,OK
2021-202110120000400,100400010120000400,400,2021-10-06,NG
2021-202110120000500,100400010120000500,500,2021-10-06,NG
2021-202110120000500,100400010120000500,500,2021-10-06,OK
2021-202110120000600,100400010120000600,600,2021-10-06,OK
2021-202110120000800,100400010120000800,800,2021-10-06,OK
2021-202110120000900,100400010120000900,900,2021-10-06,NG
2021-202110120000900,100400010120000900,900,2021-10-06,OK
2021-202110120001000,100400010120001000,1000,2021-10-07,NG
2021-202110120011000,100400010120011000,1100,2021-10-07,NG
2021-202110120012000,100400010120012000,1200,2021-10-07,OK
2021-202110120013000,100400010120013000,1300,2021-10-07,OK
2021-202110120013000,100400010120013000,1300,2021-10-07,OK
2021-202110120014000,100400010120014000,1400,2021-10-07,OK
2021-202110120015000,100400010120015000,1500,2021-10-07,OK
