加盟店注文番号,課金番号,決済金額,決済日時,結果コード
2021-202110170001100,100400010170001100,1100,2021-10-05,OK
2021-202110170001200,100400010170001200,1200,2021-10-05,NG
2021-202110170001300,100400010170001300,1300,2021-10-05,NG
2021-202110170001400,100400010170001400,1400,2021-10-05,OK
2021-202110170001500,100400010170001500,1500,2021-10-05,OK
2021-202110170001600,100400010170001600,1600,2021-10-05,NG
2021-202110170001600,100400010170001600,1600,2021-10-05,OK
2021-202110170001700,100400010170001700,1700,2021-10-05,OK
2021-202110170001900,100400010170001900,1900,2021-10-05,NG
2021-202110170002000,100400010170002000,2000,2021-10-05,NG
2021-202110170002000,100400010170002000,2000,2021-10-05,OK
2021-202110170021000,100400010170021000,2150,2021-10-05,NG
2021-202110170022000,100400010170022000,2250,2021-10-05,OK
2021-202110170023000,100400010170023000,2550,2021-10-05,OK
2021-202110170024000,100400010170024000,2550,2021-10-05,OK
2021-202110170024000,100400010170024000,2550,2021-10-05,OK
2021-202110170025000,100400010170025000,2550,2021-10-05,OK
2021-202110170025000,100400010170025000,2550,2021-10-05,OK
