加盟店注文番号,課金番号,決済金額,決済日時,結果コード
2021-202110120002100,100400010120002100,0,2021-10-05,OK
2021-202110120002200,100400010120002200,0,2021-10-05,NG
2021-202110120002300,100400010120002300,0,2021-10-05,NG
2021-202110120002400,100400010120002400,0,2021-10-05,OK
2021-202110120002500,100400010120002500,0,2021-10-05,OK
2021-202110120002600,100400010120002600,0,2021-10-05,NG
2021-202110120002600,100400010120002600,0,2021-10-05,OK
2021-202110120002700,100400010120002700,0,2021-10-05,OK
2021-202110120002800,100400010120002900,0,2021-10-05,NG
2021-202110120003000,100400010120003000,0,2021-10-05,NG
2021-202110120003000,100400010120003000,0,2021-10-05,OK
2021-202110120030000,100400010120030000,0,2021-10-05,OK
