加盟店注文番号,課金番号,決済金額,決済日時,結果コード
2021-202110180001100,100400010180001100,1100,2021-10-05,OK
2021-202110180001200,100400010180001200,1200,2021-10-05,NG
2021-202110180001300,100400010180001300,1300,2021-10-05,NG
2021-202110180001400,100400010180001400,1400,2021-10-05,OK
2021-202110180001500,100400010180001500,1500,2021-10-05,OK
2021-202110180001600,100400010180001600,1600,2021-10-05,NG
2021-202110180001600,100400010180001600,1600,2021-10-05,OK
2021-202110180001700,100400010180001700,1700,2021-10-05,OK
2021-202110180001900,100400010180001900,1900,2021-10-05,NG
2021-202110180002000,100400010180002000,2000,2021-10-05,NG
2021-202110180002000,100400010180002000,2000,2021-10-05,OK
2021-202110180021000,100400010180021000,2150,2021-10-05,NG
2021-202110180022000,100400010180022000,2250,2021-10-05,OK
2021-202110180023000,100400010180023000,2550,2021-10-05,OK
2021-202110180024000,100400010180024000,2550,2021-10-05,OK
2021-202110180024000,100400010180024000,2550,2021-10-05,OK
2021-202110180025000,100400010180025000,2550,2021-10-05,OK
2021-202110180025000,100400010180025000,2550,2021-10-05,OK
